{
  "deviceNumberMapping":{
    "1":104,
    "2":105,
    "3":106,
    "4":107,
    "5":108,
    "6":109,
    "7":110,
    "100":119,
    "101":120,
    "110":43,
    "112":45,
    "114":46,
    "117":47,
    "118":48,
    "119":49,
    "120":44,
    "121":50,
    "123":51,
    "125":52,
    "133":53,
    "137":54,
    "143":55,
    "153":56,
    "190":133,
    "191":96,
    "200":121,
    "201":122,
    "202":111,
    "203":123,
    "204":112,
    "211":57,
    "219":58,
    "222":59,
    "223":60,
    "231":61,
    "233":62,
    "236":63,
    "240":64,
    "244":65,
    "250":66,
    "252":67,
    "290":134,
    "291":97,
    "300":124,
    "301":113,
    "302":114,
    "303":125,
    "311":68,
    "315":69,
    "319":70,
    "320":71,
    "321":72,
    "322":73,
    "333":74,
    "350":75,
    "363":132,
    "373":94,
    "383":95,
    "390":135,
    "391":98,
    "400":126,
    "401":127,
    "411":76,
    "422":77,
    "490":136,
    "491":99,
    "500":128,
    "501":115,
    "511":78,
    "522":79,
    "590":137,
    "591":100,
    "600":129,
    "601":116,
    "611":80,
    "622":81,
    "690":138,
    "691":101,
    "700":130,
    "701":131,
    "702":117,
    "703":118,
    "711":82,
    "722":83,
    "790":140,
    "791":102,
    "811":84,
    "822":85,
    "911":86,
    "922":87,
    "1000":103,
    "1011":88,
    "1022":89,
    "1111":90,
    "1122":91,
    "1211":92,
    "1222":93
  }
}